module github.com/nknorg/nkn/v2

go 1.13

require (
	github.com/gin-contrib/sessions v0.0.0-20190512062852-3cb4c4f2d615
	github.com/gin-gonic/gin v1.7.0
	github.com/go-acme/lego/v3 v3.8.0
	github.com/golang/protobuf v1.5.0
	github.com/gorilla/securecookie v1.1.1
	github.com/gorilla/websocket v1.4.2
	github.com/howeyc/gopass v0.0.0-20170109162249-bf9dde6d0d2c
	github.com/itchyny/base58-go v0.0.5
	github.com/jpillora/backoff v1.0.0 // indirect
	github.com/nknorg/consequential v0.0.0-20190823093205-a45aff4a218a
	github.com/nknorg/nnet v0.0.0-20220112093001-f125c811090c
	github.com/nknorg/portmapper v0.0.0-20200114081049-1c03cdccc283
	github.com/patrickmn/go-cache v2.1.0+incompatible
	github.com/pbnjay/memory v0.0.0-20190104145345-974d429e7ae4
	github.com/pborman/uuid v1.2.0
	github.com/rdegges/go-ipify v0.0.0-20150526035502-2d94a6a86c40
	github.com/syndtr/goleveldb v1.0.1-0.20210305035536-64b5b1c73954
	github.com/urfave/cli v1.22.1
	golang.org/x/crypto v0.0.0-20210322153248-0c34fe9e7dc2
	golang.org/x/time v0.0.0-20201208040808-7e3f01d25324
	google.golang.org/protobuf v1.26.0
)
